<?xml version="1.0" encoding="UTF-8"?>
<!DOCTYPE svg PUBLIC "-//W3C//DTD SVG 1.1//EN" "http://www.w3.org/Graphics/SVG/1.1/DTD/svg11.dtd">
<!-- Creator: CorelDRAW X7 -->
<svg xmlns="http://www.w3.org/2000/svg" xml:space="preserve" width="50.9066mm" height="50.9066mm" version="1.1" style="shape-rendering:geometricPrecision; text-rendering:geometricPrecision; image-rendering:optimizeQuality; fill-rule:evenodd; clip-rule:evenodd"
viewBox="0 0 297554 297554"
 xmlns:xlink="http://www.w3.org/1999/xlink">
 <defs>
  <style type="text/css">
   <![CDATA[
    .fil0 {fill:none}
    .fil3 {fill:#898989}
    .fil2 {fill:#A2D9F7}
    .fil1 {fill:#898989;fill-rule:nonzero}
   ]]>
  </style>
 </defs>
 <g id="Warstwa_x0020_1">
  <metadata id="CorelCorpID_0Corel-Layer"/>
  <path class="fil0" d="M148777 0c82167,0 148777,66609 148777,148777 0,82167 -66610,148777 -148777,148777 -82168,0 -148777,-66610 -148777,-148777 0,-82168 66609,-148777 148777,-148777z"/>
  <g id="_2433016112192">
   <g>
    <polygon class="fil1" points="76435,121168 89491,121168 89491,108037 98370,108037 98370,121168 111500,121168 111500,130046 98370,130046 98370,143102 89491,143102 89491,130046 76435,130046 "/>
    <polygon class="fil1" points="76708,178648 82963,172380 93967,183348 104972,172380 111226,178648 100234,189602 111127,200458 104860,206724 93967,195857 83074,206724 76808,200458 87700,189602 "/>
    <polygon class="fil1" points="220033,118051 220033,126537 187136,126537 187136,118051 "/>
    <path class="fil1" d="M198437 174167c0,-1430 510,-2624 1517,-3594 1007,-970 2188,-1455 3556,-1455 1393,0 2574,498 3581,1493 995,994 1493,2163 1493,3519 0,1392 -498,2573 -1493,3568 -1007,995 -2188,1493 -3581,1493 -1430,0 -2636,-510 -3618,-1530 -970,-1020 -1455,-2176 -1455,-3494zm-12385 7933l35065 0 0 8580 -35065 0 0 -8580zm12385 16389c0,-1530 510,-2773 1529,-3743 1020,-970 2214,-1455 3582,-1455 1392,0 2586,485 3593,1467 1007,983 1517,2189 1517,3619 0,1392 -497,2574 -1492,3568 -1007,995 -2201,1493 -3618,1493 -1430,0 -2649,-510 -3631,-1530 -982,-1019 -1480,-2151 -1480,-3419z"/>
   </g>
   <path class="fil2" d="M107947 45267c20535,0 36881,20691 37775,43153l0 131402c-739,9878 -11073,31555 -25011,31555 -4839,0 -9345,-1426 -13122,-3879 -5215,2485 -11052,3879 -17214,3879 -14886,0 -27875,-8120 -34782,-20172 -19119,-5746 -33049,-23481 -33049,-44472 0,-8083 2067,-15682 5698,-22301 -6366,-6962 -10250,-16232 -10250,-26410 0,-14090 7445,-26439 18613,-33335 -264,-1520 -403,-3082 -403,-4678 0,-14959 12126,-27086 27086,-27086 3157,0 6187,542 9005,1535 3330,-16648 15119,-29191 35654,-29191zm24871 173949l0 -130516c-624,-13099 -9981,-30529 -24871,-30529 -12693,0 -20537,6503 -23000,18818l-2917 14581 -14026 -4942c-1518,-535 -3107,-801 -4716,-801 -7837,0 -14182,6345 -14182,14182 0,826 70,1651 213,2465l1498 8604 -7432 4589c-7763,4793 -12489,13204 -12489,22355 0,6585 2426,12842 6870,17702l6233 6817 -4443 8098c-2715,4949 -4107,10450 -4107,16094 0,14797 9716,27864 23859,32114l4924 1480 2557 4462c4849,8460 13804,13683 23586,13683 4046,0 8010,-883 11663,-2623l6520 -3108 6058 3934c1827,1186 3918,1797 6095,1797 54,0 108,-8 160,-19 5055,-1043 11320,-14211 11947,-19237z"/>
   <path class="fil3" d="M189606 46177c-20534,0 -36880,20691 -37775,43154l0 131402c739,9878 11073,31554 25012,31554 4839,0 9344,-1426 13121,-3878 5216,2485 11052,3878 17215,3878 14886,0 27874,-8120 34781,-20171 19120,-5746 33050,-23481 33050,-44472 0,-8083 -2067,-15683 -5699,-22302 6366,-6962 10251,-16231 10251,-26410 0,-14089 -7445,-26439 -18614,-33335 265,-1519 404,-3082 404,-4677 0,-14960 -12127,-27087 -27087,-27087 -3157,0 -6187,542 -9004,1535 -3330,-16648 -15119,-29191 -35655,-29191zm-24870 173950l0 -130517c624,-13098 9981,-30528 24870,-30528 12694,0 20538,6502 23001,18817l2917 14582 14025 -4942c1518,-535 3107,-801 4716,-801 7837,0 14183,6345 14183,14182 0,826 -71,1651 -213,2464l-1498 8605 7432 4589c7763,4792 12489,13204 12489,22354 0,6586 -2427,12843 -6871,17703l-6232 6816 4443 8098c2715,4949 4107,10451 4107,16095 0,14797 -9716,27863 -23859,32114l-4925 1480 -2556 4461c-4849,8460 -13805,13684 -23586,13684 -4046,0 -8010,-883 -11663,-2624l-6521 -3107 -6058 3933c-1826,1186 -3918,1798 -6094,1798 -54,0 -108,-9 -161,-19 -5054,-1043 -11319,-14211 -11946,-19237z"/>
  </g>
 </g>
</svg>
